﻿CatalogId;ModelKey;Price
1;NJ33M4;14332
1;NJ33KC;16196
1;NJ34KC;17277
1;NJ34N5;16772
1;NJ34ND;18662
1;NJ53M4;15279
1;NJ53KC;17141
1;NJ54KC;18222
1;NJ54N5;17717
1;NJ54ND;19607
1;NH32M4;14582
1;NH32N5;15109
1;NH32L4;14525
1;NH32LC;16190
1;NH33M4;15546
1;NH33N5;16564
1;NH33L4;15980
1;NH33LC;17645
1;NH34M4;16463
1;NH34N5;17479
1;NH34L4;16895
1;NH34LC;18561
1;5E32H4;16917
1;5E32HC;18595
1;5E32M5;18176
1;5E33H4;19264
1;5E33HC;20943
1;5E33M5;20524
1;5E33MD;22388
1;5E33PD;25284
1;5E338D;25948
1;5E338Z;29584
1;5E3385;24085
1;5E339Z;30644
1;5E34H4;20392
1;5E34HC;22071
1;5E34M5;21652
1;5E34MD;23517
1;5E34PD;26412
1;5E348D;27082
1;5E348Z;30718
1;5E3485;25217
1;5E349Z;31778
1;5E3585;31096
1;5E358D;32960
1;5E358Z;36596
1;5E359Z;37657
1;5E36UD;36758
1;5E369Z;38225
1;5E52H4;18581
1;5E52HC;20259
1;5E52M5;19842
1;5E53H4;20663
1;5E53HC;22340
1;5E53M5;21922
1;5E53MD;23787
1;5E53PD;26682
1;5E538D;27348
1;5E538Z;30984
1;5E5385;25483
1;5E539Z;32044
1;5E54H4;21811
1;5E54HC;23489
1;5E54M5;23071
1;5E54MD;24935
1;5E54PD;27830
1;5E548D;28496
1;5E548Z;32132
1;5E5485;26631
1;5E549Z;33192
1;5E5585;32510
1;5E558D;34374
1;5E558Z;38010
1;5E559Z;39071
1;5E56UD;38174
1;5E569Z;39640
1;5E5S9Z;36479
1;3V32PD;26023
1;3V33PD;29018
1;3V33SC;32853
1;3V33UX;36473
1;3V338D;33025
1;3V338Z;37025
1;3V34PD;31077
1;3V34SC;34912
1;3V34UX;38532
1;3V348D;35085
1;3V348Z;39085
1;3V35PD;36836
1;3V35SC;40671
1;3V35UX;44291
1;3V358D;40846
1;3V358Z;44845
1;3V52PD;27942
1;3V53PD;30923
1;3V53SC;34757
1;3V53UX;38378
1;3V538D;34930
1;3V538Z;38930
1;3V54PD;32982
1;3V54SC;36817
1;3V54UX;40437
1;3V548D;36990
1;3V548Z;40990
1;3V55PD;38791
1;3V55SC;42627
1;3V55UX;46246
1;3V558D;42800
1;3V558Z;46799
1;NU73ND;25414
1;NU734Z;31565
1;NU74ND;26506
1;NU744Z;32388
1;NU7S4Z;34456
1;NS73KY;29507
1;NS73RZ;32287
1;NS735Y;31156
1;NS735Z;33158
1;NS738Z;36056
1;NS74KY;31495
1;NS74RZ;34276
1;NS745Y;33145
1;NS745Z;35145
1;NS748Z;38045
1;NS7SKY;33929
1;NS7SRZ;36709
1;NS7S5Y;35578
1;NS7S5Z;37578
1;NS7S8Z;40478
1;NS75RZ;40410
1;NS755Y;39279
1;NS755Z;41279
1;NS758Z;44179