[
  {
    "Firstname": "Игорь",
    "Lastname": "Боярин",
    "Middlename": "",
    "Birthday": "1900-01-01",
    "Gender": "m"
  },
  {
    "Firstname": "Павел",
    "Lastname": "Голубченко",
    "Middlename": "",
    "Birthday": "1900-01-01",
    "Gender": "m"
  },
  {
    "Firstname": "Алексей",
    "Lastname": "Каржаневский",
    "Middlename": "",
    "Birthday": "1900-01-01",
    "Gender": "m"
  },
  {
    "Firstname": "Антон",
    "Lastname": "Гуров",
    "Middlename": "",
    "Birthday": "1900-01-01",
    "Gender": "m"
  },
  {
    "Firstname": "Максим",
    "Lastname": "Кострица",
    "Middlename": "",
    "Birthday": "1900-01-01",
    "Gender": "m"
  }
]