﻿ModelId;Key;Name;Type;Category
NJ;4;5° mech.;5MG;0
NJ;5;6° mech.;6MG;0
NJ;C;6° automat;6AG;2
NJ;D;7° automat;7DSG;2
NH;4;5° mech.;5MG;0
NH;5;6° mech.;6MG;0
NH;C;6° automat;6AG;2
NH;D;7° automat;7DSG;2
NU;5;6° mech.;6MG;0
NU;D;7° automat;7DSG;2
NU;E;8° automat;8DSG;2
NU;Y;6° mech. 4x4;6MG 4X4;1
NU;Z;7° automat 4X4;7DSG 4X4;3
NU;C;6° automat;6MG;2
3V;5;6° mech.;6MG;0
3V;C;6° automat.;6DSG;2
3V;D;7° automat.;7DSG;2
3V;X;6° automat. 4x4 ;6DSG 4X4;3
3V;Y;6° mech. 4x4;6MG 4X4;1
3V;Z;7° automat. 4x4;7DSG 4X4;3
NS;5;6° mech.;6MG;0
NS;C;6° automat;6DSG;1
NS;D;7° automat;7DSG 4X4;1
NS;Y;6° automat 4x4;6DSG 4X4;3
NS;Z;6° mech. 4x4;6MG 4X4;1
5E;4;5° mech.;5MG;0
5E;5;6° mech.;6MG;0
5E;C;6° automat;6DSG;2
5E;D;7° automat;7DSG;2
5E;Y;6° automat 4x4;6DSG 4x4;3
5E;Z;6° mech. 4x4;6MG 4X4;1